{
  "name": "Content",
  "app_id": "",
  "integrations": {
    "cordova": {}
  },
  "type": "ionic1",
  "watchPatterns": [
    "scss/**/*",
    "www/**/*",
    "!www/lib/**/*",
    "!www/**/*.map"
  ]
}
